INDEX VERSION 1.130+F:\My-Git-2\my-git\SpringBoot\workspace2\.metadata\.plugins\org.eclipse.jdt.core
1042933137.index
1692654745.index
3520424145.index
1979752633.index
1038751644.index
2929167994.index
3578020678.index
1032093370.index
1897552840.index
1614076663.index
4229891941.index
713851350.index
682233710.index
2548416931.index
2738065678.index
966277549.index
1420267617.index
4203771247.index
1132291763.index
414743559.index
1838316201.index
1506378269.index
1318221229.index
1983903922.index
2002075128.index
1043252846.index
789793410.index
158472536.index
1070925910.index
896881495.index
3522488191.index
4116077892.index
3932281210.index
3484221634.index
3175209700.index
3926854650.index
3818675454.index
2587099047.index
3921045008.index
1061945541.index
1094938870.index
2248760157.index
2330590175.index
1099359906.index
2071899228.index
1939103288.index
3748878864.index
2142174175.index
2005727387.index
2496433315.index
4089765016.index
4241006554.index
3796219515.index
3530034390.index
2331865692.index
516855126.index
3123164085.index
1273297841.index
2404500135.index
3537285648.index
3713846015.index
2085310926.index
2769564526.index
1088444589.index
3258631911.index
3492531165.index
3219826390.index
3512346830.index
3398067684.index
3393280647.index
116554015.index
230428119.index
2561441264.index
1669787819.index
3858155954.index
38587605.index
1873896275.index
2127241049.index
1509895460.index
